<?xml version="1.0" encoding="iso-8859-1"?>
<!-- Generator: Adobe Illustrator 19.0.0, SVG Export Plug-In . SVG Version: 6.00 Build 0)  -->
<svg version="1.1" id="Capa_1" xmlns="http://www.w3.org/2000/svg" xmlns:xlink="http://www.w3.org/1999/xlink" x="0px" y="0px"
	 viewBox="0 0 512 512" style="enable-background:new 0 0 512 512;" xml:space="preserve">
<g>
	<g>
		<path d="M305.944,130.831c3.664,7.174,6.945,15.071,9.822,23.568c6.315-2.59,12.231-5.43,17.506-8.791
			C324.809,139.666,315.672,134.728,305.944,130.831z"/>
	</g>
</g>
<g>
	<g>
		<path d="M294.781,191.891C282.316,194.347,269.423,196,256,196c-13.423,0-26.316-1.653-38.782-4.109
			c-2.928,14.522-4.867,30.965-5.618,49.109h88.799C299.648,222.856,297.709,206.413,294.781,191.891z"/>
	</g>
</g>
<g>
	<g>
		<path d="M256,121c-9.803,0-21.87,15.375-31.08,41.913C234.936,164.768,245.292,166,256,166s21.064-1.232,31.08-3.087
			C277.87,136.375,265.803,121,256,121z"/>
	</g>
</g>
<g>
	<g>
		<path d="M156.123,165.988c-18.4,20.398-30.377,46.295-33.607,75.013h58.792c0.794-19.568,3.164-39.074,6.996-57.265
			C176.173,179.094,165.588,172.984,156.123,165.988z"/>
	</g>
</g>
<g>
	<g>
		<path d="M181.308,271h-58.792c3.23,28.718,15.207,54.615,33.607,75.013c9.465-6.996,20.05-13.107,32.181-17.748
			C184.472,310.073,182.102,290.567,181.308,271z"/>
	</g>
</g>
<g>
	<g>
		<path d="M211.601,271c0.75,18.144,2.689,34.587,5.617,49.109C229.684,317.653,242.577,316,256,316
			c13.423,0,26.316,1.653,38.782,4.109c2.928-14.522,4.867-30.965,5.618-49.109H211.601z"/>
	</g>
</g>
<g>
	<g>
		<path d="M330.692,270.999c-0.794,19.568-3.164,39.074-6.996,57.265c12.131,4.642,22.716,10.752,32.181,17.748
			c18.4-20.398,30.377-46.295,33.607-75.013H330.692z"/>
	</g>
</g>
<g>
	<g>
		<path d="M178.729,145.607c5.278,3.362,11.188,6.202,17.505,8.791c2.877-8.494,6.158-16.393,9.822-23.568
			C196.328,134.726,187.191,139.665,178.729,145.607z"/>
	</g>
</g>
<g>
	<g>
		<path d="M501.746,211.776l-27.045-8.687c-5.479-22.734-14.414-44.297-26.66-64.292l12.29-24.58
			c2.886-5.771,1.758-12.744-2.813-17.314l-42.422-42.422c-4.585-4.57-11.528-5.684-17.314-2.813l-24.595,12.305
			c-18.252-11.147-38.042-19.585-59.019-25.166l-14.75-30.516C296.869,3.208,291.684,0,286,0h-60
			c-5.684,0-10.869,3.208-13.418,8.291l-14.751,30.517c-20.977,5.581-40.767,14.019-59.019,25.166l-24.595-12.305
			c-5.801-2.915-12.744-1.787-17.314,2.813L54.481,96.903c-4.57,4.57-5.698,11.543-2.813,17.314l12.305,24.595
			c-11.147,18.252-19.585,38.042-25.166,59.019L8.291,212.582C3.208,215.131,0,220.316,0,226v60c0,5.684,3.208,10.869,8.291,13.418
			l30.517,14.751c5.068,18.94,12.612,37.119,22.5,54.214l-10.459,31.362c-1.787,5.391-0.381,11.338,3.633,15.352l42.422,42.422
			c3.999,4.014,9.946,5.405,15.352,3.633l31.362-10.459c18.853,10.942,38.789,18.984,59.473,23.994l8.687,27.06
			C213.813,507.869,219.54,512,226,512h60c6.46,0,12.188-4.131,14.224-10.254l8.687-27.06c20.684-5.01,40.62-13.052,59.473-23.994
			l31.362,10.459c5.361,1.772,11.323,0.381,15.352-3.633l42.422-42.422c4.014-4.014,5.42-9.961,3.633-15.352l-10.459-31.362
			c10.942-18.853,18.984-38.789,23.994-59.473l27.06-8.687C507.869,298.188,512,292.46,512,286v-60
			C512,219.54,507.869,213.813,501.746,211.776z M256,421c-90.564,0-165-74.171-165-165c0-91.761,75.295-165,165-165
			c90.564,0,165,74.169,165,165C421,346.615,346.765,421,256,421z"/>
	</g>
</g>
<g>
	<g>
		<path d="M315.765,357.601c-2.876,8.497-6.157,16.394-9.821,23.568c9.728-3.896,18.865-8.835,27.328-14.777
			C327.997,363.03,322.081,360.19,315.765,357.601z"/>
	</g>
</g>
<g>
	<g>
		<path d="M355.877,165.987c-9.465,6.997-20.05,13.107-32.181,17.749c3.832,18.192,6.202,37.698,6.996,57.264h58.792
			C386.254,212.282,374.277,186.385,355.877,165.987z"/>
	</g>
</g>
<g>
	<g>
		<path d="M256,346c-10.708,0-21.064,1.232-31.08,3.087C234.13,375.625,246.197,391,256,391s21.87-15.375,31.08-41.913
			C277.064,347.232,266.708,346,256,346z"/>
	</g>
</g>
<g>
	<g>
		<path d="M196.234,357.601c-6.317,2.59-12.227,5.43-17.505,8.791c8.461,5.942,17.598,10.88,27.327,14.777
			C202.392,373.995,199.111,366.096,196.234,357.601z"/>
	</g>
</g>
<g>
</g>
<g>
</g>
<g>
</g>
<g>
</g>
<g>
</g>
<g>
</g>
<g>
</g>
<g>
</g>
<g>
</g>
<g>
</g>
<g>
</g>
<g>
</g>
<g>
</g>
<g>
</g>
<g>
</g>
</svg>
