<?xml version="1.0" encoding="iso-8859-1"?>
<!-- Generator: Adobe Illustrator 19.0.0, SVG Export Plug-In . SVG Version: 6.00 Build 0)  -->
<svg version="1.1" id="Capa_1" xmlns="http://www.w3.org/2000/svg" xmlns:xlink="http://www.w3.org/1999/xlink" x="0px" y="0px"
	 viewBox="0 0 512 512" style="enable-background:new 0 0 512 512;" xml:space="preserve">
<g>
	<g>
		<path d="M501.622,211.73l-26.947-8.727c-5.472-22.692-14.403-44.219-26.634-64.196l12.295-24.592
			c2.887-5.775,1.755-12.749-2.81-17.314L415.1,54.475c-4.565-4.566-11.54-5.697-17.314-2.81l-24.599,12.299
			c-18.223-11.123-37.976-19.551-58.914-25.132L299.489,8.439C296.978,3.277,291.741,0,286,0h-60
			c-5.741,0-10.978,3.277-13.489,8.439l-14.783,30.393c-20.938,5.581-40.691,14.009-58.914,25.132l-24.599-12.299
			c-5.774-2.887-12.749-1.755-17.314,2.81L54.475,96.9c-4.565,4.565-5.697,11.539-2.81,17.314l12.298,24.599
			c-11.124,18.221-19.55,37.975-25.131,58.915L8.439,212.511C3.276,215.022,0,220.259,0,226v60c0,5.741,3.276,10.978,8.439,13.489
			l30.398,14.785c5.069,18.92,12.604,37.067,22.469,54.109l-10.455,31.364c-1.797,5.39-0.394,11.333,3.623,15.35L96.9,457.525
			c4.019,4.018,9.96,5.419,15.351,3.624l31.36-10.454c18.816,10.919,38.731,18.957,59.39,23.971l8.729,26.955
			C213.733,507.809,219.496,512,226,512h60c6.504,0,12.267-4.191,14.271-10.378L309,474.667
			c20.658-5.015,40.573-13.052,59.39-23.971l31.36,10.454c5.391,1.797,11.333,0.394,15.351-3.624l42.425-42.427
			c4.017-4.018,5.42-9.96,3.623-15.35l-10.453-31.358c10.919-18.815,18.957-38.73,23.971-59.389l26.955-8.73
			C507.809,298.267,512,292.504,512,286v-60C512,219.496,507.809,213.733,501.622,211.73z M482,275.091l-24.743,8.013
			c-5.166,1.673-9.023,6.007-10.087,11.331c-4.497,22.501-13.119,44.111-25.626,64.23c-2.356,3.789-2.902,8.43-1.491,12.663
			l9.705,29.112l-29.315,29.316l-29.113-9.705c-4.234-1.41-8.874-0.864-12.663,1.491c-20.121,12.508-41.731,21.13-64.23,25.626
			c-5.324,1.064-9.658,4.922-11.331,10.087L275.091,482h-38.182l-8.013-24.743c-1.673-5.166-6.007-9.023-11.331-10.087
			c-22.5-4.497-44.11-13.119-64.23-25.626c-3.79-2.355-8.43-2.901-12.663-1.491l-29.113,9.705L82.243,400.44l9.705-29.112
			c1.411-4.232,0.865-8.874-1.491-12.663c-11.234-18.073-19.364-37.664-24.164-58.231c-1.027-4.4-3.983-8.103-8.046-10.08
			L30,276.616v-41.231l28.247-13.739c4.063-1.977,7.02-5.679,8.046-10.08c5.356-22.949,14.564-44.326,27.37-63.536
			c2.986-4.479,3.343-10.213,0.936-15.028l-11.266-22.533l27.136-27.136l22.533,11.266c4.814,2.407,10.549,2.05,15.027-0.935
			c19.212-12.806,40.589-22.015,63.537-27.371c4.4-1.027,8.103-3.983,10.079-8.046L235.384,30h41.231l13.739,28.246
			c1.976,4.063,5.679,7.019,10.079,8.046c22.947,5.356,44.324,14.565,63.537,27.371c4.479,2.985,10.214,3.342,15.027,0.935
			l22.533-11.266l27.136,27.136L417.4,133.001c-2.407,4.814-2.05,10.549,0.935,15.028c14.155,21.235,23.856,44.63,28.833,69.535
			c1.063,5.324,4.922,9.658,10.087,11.331L482,236.909V275.091z"/>
	</g>
</g>
<g>
	<g>
		<path d="M256,91c-90.928,0-165,73.965-165,165c0,90.916,73.964,165,165,165c90.928,0,165-73.965,165-165
			C421,165.084,347.036,91,256,91z M390.163,241H330.71c-0.764-20.029-3.061-39.299-6.735-57.005
			c12.221-4.677,23.309-10.632,32.819-17.698C374.924,186.646,386.997,212.497,390.163,241z M333.8,145.733
			c-5.325,3.406-11.246,6.441-17.635,9.058c-1.206-3.583-2.47-7.074-3.811-10.428c-1.956-4.891-4.043-9.458-6.241-13.714
			C315.966,134.602,325.249,139.682,333.8,145.733z M227.501,155.505C235.885,134.544,247.072,121,256,121
			s20.115,13.544,28.5,34.505c0.985,2.462,1.915,5.027,2.817,7.64C277.281,165.007,266.735,166,256,166s-21.281-0.993-31.316-2.855
			C225.586,160.532,226.516,157.968,227.501,155.505z M205.887,130.649c-2.198,4.257-4.284,8.823-6.241,13.714
			c-1.342,3.354-2.605,6.845-3.811,10.428c-6.39-2.618-12.31-5.652-17.635-9.058C186.751,139.682,196.034,134.602,205.887,130.649z
			 M155.206,166.297c9.509,7.066,20.598,13.022,32.819,17.698c-3.674,17.706-5.971,36.976-6.735,57.005h-59.452
			C125.003,212.497,137.077,186.646,155.206,166.297z M121.838,271h59.452c0.764,20.029,3.061,39.299,6.735,57.005
			c-12.221,4.677-23.309,10.632-32.819,17.698C137.077,325.354,125.003,299.503,121.838,271z M178.201,366.266
			c5.325-3.405,11.245-6.44,17.635-9.058c1.206,3.583,2.469,7.074,3.811,10.428c1.956,4.891,4.043,9.458,6.241,13.714
			C196.035,377.397,186.752,372.317,178.201,366.266z M284.499,356.495C276.115,377.456,264.928,391,256,391
			c-8.928,0-20.115-13.544-28.5-34.505c-0.985-2.462-1.915-5.027-2.817-7.64C234.719,346.993,245.265,346,256,346
			s21.281,0.993,31.316,2.855C286.414,351.468,285.484,354.032,284.499,356.495z M295.059,319.766
			C282.577,317.303,269.443,316,256,316s-26.577,1.303-39.059,3.766c-3.01-15.122-4.927-31.58-5.629-48.766h89.376
			C299.985,288.186,298.068,304.644,295.059,319.766z M211.312,241c0.703-17.186,2.62-33.644,5.629-48.766
			C229.423,194.697,242.557,196,256,196s26.577-1.303,39.059-3.766c3.01,15.122,4.927,31.58,5.629,48.766H211.312z M306.113,381.351
			c2.198-4.257,4.284-8.823,6.241-13.714c1.342-3.354,2.605-6.845,3.811-10.428c6.39,2.618,12.31,5.652,17.635,9.058
			C325.249,372.318,315.966,377.398,306.113,381.351z M356.793,345.703c-9.509-7.066-20.598-13.022-32.819-17.698
			c3.674-17.706,5.972-37.076,6.735-57.105h59.452C386.997,299.403,374.923,325.354,356.793,345.703z"/>
	</g>
</g>
<g>
</g>
<g>
</g>
<g>
</g>
<g>
</g>
<g>
</g>
<g>
</g>
<g>
</g>
<g>
</g>
<g>
</g>
<g>
</g>
<g>
</g>
<g>
</g>
<g>
</g>
<g>
</g>
<g>
</g>
</svg>
